SP,st_year,st_month,st_day,end_year,end_month,end_day,start_date,end_date,len_days,steady,nstp,tsmult
0,1934,12,31,1934,12,31,12/31/1934,12/31/1934,1,TRUE,1,1
1,1935,1,1,1939,12,31,1/1/1935,12/31/1939,1826,FALSE,1,1
2,1940,1,1,1944,12,31,1/1/1940,12/31/1944,1827,FALSE,1,1
3,1945,1,1,1949,12,31,1/1/1945,12/31/1949,1826,FALSE,1,1
4,1950,1,1,1954,12,31,1/1/1950,12/31/1954,1826,FALSE,1,1
5,1955,1,1,1959,12,31,1/1/1955,12/31/1959,1826,FALSE,1,1
6,1960,1,1,1964,12,31,1/1/1960,12/31/1964,1827,FALSE,1,1
7,1965,1,1,1969,12,31,1/1/1965,12/31/1969,1826,FALSE,1,1
8,1970,1,1,1974,12,31,1/1/1970,12/31/1974,1826,FALSE,1,1
9,1975,1,1,1979,12,31,1/1/1975,12/31/1979,1826,FALSE,1,1
10,1980,1,1,1984,12,31,1/1/1980,12/31/1984,1827,FALSE,1,1
11,1985,1,1,1989,12,31,1/1/1985,12/31/1989,1826,FALSE,1,1
12,1990,1,1,1994,12,31,1/1/1990,12/31/1994,1826,FALSE,1,1
13,1995,1,1,1999,12,31,1/1/1995,12/31/1999,1826,FALSE,1,1
14,2000,1,1,2004,12,31,1/1/2000,12/31/2004,1827,FALSE,1,1
15,2005,1,1,2009,12,31,1/1/2005,12/31/2009,1826,FALSE,1,1
16,2010,1,1,2014,12,31,1/1/2010,12/31/2014,1826,FALSE,1,1
17,2015,1,1,2015,12,31,1/1/2015,12/31/2015,365,FALSE,1,1
18,2016,1,1,2016,12,31,1/1/2016,12/31/2016,366,FALSE,1,1
19,2017,1,1,2017,12,31,1/1/2017,12/31/2017,365,FALSE,1,1
20,2018,1,1,2018,12,31,1/1/2018,12/31/2018,365,FALSE,1,1
21,2019,1,1,2019,12,31,1/1/2019,12/31/2019,365,FALSE,1,1
22,2020,1,1,2020,12,31,1/1/2020,12/31/2020,366,FALSE,1,1
23,2021,1,1,2021,12,31,1/1/2021,12/31/2021,365,FALSE,1,1
24,2022,1,1,2022,12,31,1/1/2022,12/31/2022,365,FALSE,1,1
25,2023,1,1,2023,12,31,1/1/2023,12/31/2023,365,FALSE,1,1
26,2024,1,1,2024,12,31,1/1/2024,12/31/2024,366,FALSE,1,1
27,2025,1,1,2025,12,31,1/1/2025,12/31/2025,365,FALSE,1,1
28,2026,1,1,2026,12,31,1/1/2026,12/31/2026,365,FALSE,1,1
29,2027,1,1,2027,12,31,1/1/2027,12/31/2027,365,FALSE,1,1
30,2028,1,1,2028,12,31,1/1/2028,12/31/2028,366,FALSE,1,1
31,2029,1,1,2029,12,31,1/1/2029,12/31/2029,365,FALSE,1,1
32,2030,1,1,2030,12,31,1/1/2030,12/31/2030,365,FALSE,1,1
33,2031,1,1,2031,12,31,1/1/2031,12/31/2031,365,FALSE,1,1
34,2032,1,1,2032,12,31,1/1/2032,12/31/2032,366,FALSE,1,1
35,2033,1,1,2033,12,31,1/1/2033,12/31/2033,365,FALSE,1,1
36,2034,1,1,2034,12,31,1/1/2034,12/31/2034,365,FALSE,1,1
37,2035,1,1,2035,12,31,1/1/2035,12/31/2035,365,FALSE,1,1
38,2036,1,1,2036,12,31,1/1/2036,12/31/2036,366,FALSE,1,1
39,2037,1,1,2037,12,31,1/1/2037,12/31/2037,365,FALSE,1,1
40,2038,1,1,2038,12,31,1/1/2038,12/31/2038,365,FALSE,1,1
41,2039,1,1,2039,12,31,1/1/2039,12/31/2039,365,FALSE,1,1
42,2040,1,1,2040,12,31,1/1/2040,12/31/2040,366,FALSE,1,1
43,2041,1,1,2041,12,31,1/1/2041,12/31/2041,365,FALSE,1,1
44,2042,1,1,2042,12,31,1/1/2042,12/31/2042,365,FALSE,1,1
45,2043,1,1,2043,12,31,1/1/2043,12/31/2043,365,FALSE,1,1
46,2044,1,1,2044,12,31,1/1/2044,12/31/2044,366,FALSE,1,1
47,2045,1,1,2045,12,31,1/1/2045,12/31/2045,365,FALSE,1,1
48,2046,1,1,2046,12,31,1/1/2046,12/31/2046,365,FALSE,1,1
49,2047,1,1,2047,12,31,1/1/2047,12/31/2047,365,FALSE,1,1
50,2048,1,1,2048,12,31,1/1/2048,12/31/2048,366,FALSE,1,1
51,2049,1,1,2049,12,31,1/1/2049,12/31/2049,365,FALSE,1,1
52,2050,1,1,2050,12,31,1/1/2050,12/31/2050,365,FALSE,1,1
53,2051,1,1,2051,12,31,1/1/2051,12/31/2051,365,FALSE,1,1
54,2052,1,1,2052,12,31,1/1/2052,12/31/2052,366,FALSE,1,1
55,2053,1,1,2053,12,31,1/1/2053,12/31/2053,365,FALSE,1,1
56,2054,1,1,2054,12,31,1/1/2054,12/31/2054,365,FALSE,1,1
57,2055,1,1,2055,12,31,1/1/2055,12/31/2055,365,FALSE,1,1
58,2056,1,1,2056,12,31,1/1/2056,12/31/2056,366,FALSE,1,1
59,2057,1,1,2057,12,31,1/1/2057,12/31/2057,365,FALSE,1,1
60,2058,1,1,2058,12,31,1/1/2058,12/31/2058,365,FALSE,1,1
61,2059,1,1,2059,12,31,1/1/2059,12/31/2059,365,FALSE,1,1
62,2060,1,1,2060,12,31,1/1/2060,12/31/2060,366,FALSE,1,1
63,2061,1,1,2061,12,31,1/1/2061,12/31/2061,365,FALSE,1,1
64,2062,1,1,2062,12,31,1/1/2062,12/31/2062,365,FALSE,1,1
65,2063,1,1,2063,12,31,1/1/2063,12/31/2063,365,FALSE,1,1
66,2064,1,1,2064,12,31,1/1/2064,12/31/2064,366,FALSE,1,1
67,2065,1,1,2065,12,31,1/1/2065,12/31/2065,365,FALSE,1,1
68,2066,1,1,2066,12,31,1/1/2066,12/31/2066,365,FALSE,1,1
69,2067,1,1,2067,12,31,1/1/2067,12/31/2067,365,FALSE,1,1
70,2068,1,1,2068,12,31,1/1/2068,12/31/2068,366,FALSE,1,1
71,2069,1,1,2069,12,31,1/1/2069,12/31/2069,365,FALSE,1,1
72,2070,1,1,2070,12,31,1/1/2070,12/31/2070,365,FALSE,1,1
73,2071,1,1,2071,12,31,1/1/2071,12/31/2071,365,FALSE,1,1
74,2072,1,1,2072,12,31,1/1/2072,12/31/2072,366,FALSE,1,1
75,2073,1,1,2073,12,31,1/1/2073,12/31/2073,365,FALSE,1,1
76,2074,1,1,2074,12,31,1/1/2074,12/31/2074,365,FALSE,1,1
77,2075,1,1,2075,12,31,1/1/2075,12/31/2075,365,FALSE,1,1
78,2076,1,1,2076,12,31,1/1/2076,12/31/2076,366,FALSE,1,1
79,2077,1,1,2077,12,31,1/1/2077,12/31/2077,365,FALSE,1,1
80,2078,1,1,2078,12,31,1/1/2078,12/31/2078,365,FALSE,1,1
81,2079,1,1,2079,12,31,1/1/2079,12/31/2079,365,FALSE,1,1
82,2080,1,1,2080,12,31,1/1/2080,12/31/2080,366,FALSE,1,1
83,2081,1,1,2081,12,31,1/1/2081,12/31/2081,365,FALSE,1,1
84,2082,1,1,2082,12,31,1/1/2082,12/31/2082,365,FALSE,1,1
85,2083,1,1,2083,12,31,1/1/2083,12/31/2083,365,FALSE,1,1
86,2084,1,1,2084,12,31,1/1/2084,12/31/2084,366,FALSE,1,1
87,2085,1,1,2085,12,31,1/1/2085,12/31/2085,365,FALSE,1,1
88,2086,1,1,2086,12,31,1/1/2086,12/31/2086,365,FALSE,1,1
89,2087,1,1,2087,12,31,1/1/2087,12/31/2087,365,FALSE,1,1
90,2088,1,1,2088,12,31,1/1/2088,12/31/2088,366,FALSE,1,1
91,2089,1,1,2089,12,31,1/1/2089,12/31/2089,365,FALSE,1,1
92,2090,1,1,2090,12,31,1/1/2090,12/31/2090,365,FALSE,1,1
93,2091,1,1,2091,12,31,1/1/2091,12/31/2091,365,FALSE,1,1
94,2092,1,1,2092,12,31,1/1/2092,12/31/2092,366,FALSE,1,1
95,2093,1,1,2093,12,31,1/1/2093,12/31/2093,365,FALSE,1,1
96,2094,1,1,2094,12,31,1/1/2094,12/31/2094,365,FALSE,1,1
97,2095,1,1,2095,12,31,1/1/2095,12/31/2095,365,FALSE,1,1
98,2096,1,1,2096,12,31,1/1/2096,12/31/2096,366,FALSE,1,1
99,2097,1,1,2097,12,31,1/1/2097,12/31/2097,365,FALSE,1,1
100,2098,1,1,2098,12,31,1/1/2098,12/31/2098,365,FALSE,1,1
101,2099,1,1,2099,12,31,1/1/2099,12/31/2099,365,FALSE,1,1
102,2100,1,1,2100,12,31,1/1/2100,12/31/2100,365,FALSE,1,1
103,2101,1,1,2101,12,31,1/1/2101,12/31/2101,365,FALSE,1,1
104,2102,1,1,2102,12,31,1/1/2102,12/31/2102,365,FALSE,1,1
105,2103,1,1,2103,12,31,1/1/2103,12/31/2103,365,FALSE,1,1
106,2104,1,1,2104,12,31,1/1/2104,12/31/2104,366,FALSE,1,1
107,2105,1,1,2105,12,31,1/1/2105,12/31/2105,365,FALSE,1,1
108,2106,1,1,2106,12,31,1/1/2106,12/31/2106,365,FALSE,1,1
109,2107,1,1,2107,12,31,1/1/2107,12/31/2107,365,FALSE,1,1
110,2108,1,1,2108,12,31,1/1/2108,12/31/2108,366,FALSE,1,1
111,2109,1,1,2109,12,31,1/1/2109,12/31/2109,365,FALSE,1,1
112,2110,1,1,2110,12,31,1/1/2110,12/31/2110,365,FALSE,1,1
113,2111,1,1,2111,12,31,1/1/2111,12/31/2111,365,FALSE,1,1
114,2112,1,1,2112,12,31,1/1/2112,12/31/2112,366,FALSE,1,1
115,2113,1,1,2113,12,31,1/1/2113,12/31/2113,365,FALSE,1,1
116,2114,1,1,2114,12,31,1/1/2114,12/31/2114,365,FALSE,1,1
117,2115,1,1,2115,12,31,1/1/2115,12/31/2115,365,FALSE,1,1
118,2116,1,1,2116,12,31,1/1/2116,12/31/2116,366,FALSE,1,1
119,2117,1,1,2117,12,31,1/1/2117,12/31/2117,365,FALSE,1,1
120,2118,1,1,2118,12,31,1/1/2118,12/31/2118,365,FALSE,1,1
121,2119,1,1,2119,12,31,1/1/2119,12/31/2119,365,FALSE,1,1
122,2120,1,1,2120,12,31,1/1/2120,12/31/2120,366,FALSE,1,1
123,2121,1,1,2121,12,31,1/1/2121,12/31/2121,365,FALSE,1,1
124,2122,1,1,2122,12,31,1/1/2122,12/31/2122,365,FALSE,1,1
125,2123,1,1,2123,12,31,1/1/2123,12/31/2123,365,FALSE,1,1
126,2124,1,1,2124,12,31,1/1/2124,12/31/2124,366,FALSE,1,1
127,2125,1,1,2125,12,31,1/1/2125,12/31/2125,365,FALSE,1,1
128,2126,1,1,2126,12,31,1/1/2126,12/31/2126,365,FALSE,1,1
129,2127,1,1,2127,12,31,1/1/2127,12/31/2127,365,FALSE,1,1
130,2128,1,1,2128,12,31,1/1/2128,12/31/2128,366,FALSE,1,1
131,2129,1,1,2129,12,31,1/1/2129,12/31/2129,365,FALSE,1,1
132,2130,1,1,2130,12,31,1/1/2130,12/31/2130,365,FALSE,1,1
133,2131,1,1,2131,12,31,1/1/2131,12/31/2131,365,FALSE,1,1
134,2132,1,1,2132,12,31,1/1/2132,12/31/2132,366,FALSE,1,1
135,2133,1,1,2133,12,31,1/1/2133,12/31/2133,365,FALSE,1,1
136,2134,1,1,2134,12,31,1/1/2134,12/31/2134,365,FALSE,1,1
137,2135,1,1,2135,12,31,1/1/2135,12/31/2135,365,FALSE,1,1
138,2136,1,1,2136,12,31,1/1/2136,12/31/2136,366,FALSE,1,1
139,2137,1,1,2137,12,31,1/1/2137,12/31/2137,365,FALSE,1,1
140,2138,1,1,2138,12,31,1/1/2138,12/31/2138,365,FALSE,1,1
141,2139,1,1,2139,12,31,1/1/2139,12/31/2139,365,FALSE,1,1
142,2140,1,1,2140,12,31,1/1/2140,12/31/2140,366,FALSE,1,1
143,2141,1,1,2141,12,31,1/1/2141,12/31/2141,365,FALSE,1,1
144,2142,1,1,2142,12,31,1/1/2142,12/31/2142,365,FALSE,1,1
145,2143,1,1,2143,12,31,1/1/2143,12/31/2143,365,FALSE,1,1
146,2144,1,1,2144,12,31,1/1/2144,12/31/2144,366,FALSE,1,1
147,2145,1,1,2145,12,31,1/1/2145,12/31/2145,365,FALSE,1,1
148,2146,1,1,2146,12,31,1/1/2146,12/31/2146,365,FALSE,1,1
149,2147,1,1,2147,12,31,1/1/2147,12/31/2147,365,FALSE,1,1
150,2148,1,1,2148,12,31,1/1/2148,12/31/2148,366,FALSE,1,1
151,2149,1,1,2149,12,31,1/1/2149,12/31/2149,365,FALSE,1,1
152,2150,1,1,2150,12,31,1/1/2150,12/31/2150,365,FALSE,1,1
153,2151,1,1,2151,12,31,1/1/2151,12/31/2151,365,FALSE,1,1
154,2152,1,1,2152,12,31,1/1/2152,12/31/2152,366,FALSE,1,1
155,2153,1,1,2153,12,31,1/1/2153,12/31/2153,365,FALSE,1,1
156,2154,1,1,2154,12,31,1/1/2154,12/31/2154,365,FALSE,1,1
157,2155,1,1,2155,12,31,1/1/2155,12/31/2155,365,FALSE,1,1
158,2156,1,1,2156,12,31,1/1/2156,12/31/2156,366,FALSE,1,1
159,2157,1,1,2157,12,31,1/1/2157,12/31/2157,365,FALSE,1,1
160,2158,1,1,2158,12,31,1/1/2158,12/31/2158,365,FALSE,1,1
161,2159,1,1,2159,12,31,1/1/2159,12/31/2159,365,FALSE,1,1
162,2160,1,1,2160,12,31,1/1/2160,12/31/2160,366,FALSE,1,1
163,2161,1,1,2161,12,31,1/1/2161,12/31/2161,365,FALSE,1,1
164,2162,1,1,2162,12,31,1/1/2162,12/31/2162,365,FALSE,1,1
165,2163,1,1,2163,12,31,1/1/2163,12/31/2163,365,FALSE,1,1
166,2164,1,1,2164,12,31,1/1/2164,12/31/2164,366,FALSE,1,1
167,2165,1,1,2165,12,31,1/1/2165,12/31/2165,365,FALSE,1,1
168,2166,1,1,2166,12,31,1/1/2166,12/31/2166,365,FALSE,1,1
169,2167,1,1,2167,12,31,1/1/2167,12/31/2167,365,FALSE,1,1
170,2168,1,1,2168,12,31,1/1/2168,12/31/2168,366,FALSE,1,1
171,2169,1,1,2169,12,31,1/1/2169,12/31/2169,365,FALSE,1,1
172,2170,1,1,2170,12,31,1/1/2170,12/31/2170,365,FALSE,1,1
173,2171,1,1,2171,12,31,1/1/2171,12/31/2171,365,FALSE,1,1
174,2172,1,1,2172,12,31,1/1/2172,12/31/2172,366,FALSE,1,1
175,2173,1,1,2173,12,31,1/1/2173,12/31/2173,365,FALSE,1,1
176,2174,1,1,2174,12,31,1/1/2174,12/31/2174,365,FALSE,1,1
177,2175,1,1,2175,12,31,1/1/2175,12/31/2175,365,FALSE,1,1
178,2176,1,1,2176,12,31,1/1/2176,12/31/2176,366,FALSE,1,1
179,2177,1,1,2177,12,31,1/1/2177,12/31/2177,365,FALSE,1,1
180,2178,1,1,2178,12,31,1/1/2178,12/31/2178,365,FALSE,1,1
181,2179,1,1,2179,12,31,1/1/2179,12/31/2179,365,FALSE,1,1
182,2180,1,1,2180,12,31,1/1/2180,12/31/2180,366,FALSE,1,1
183,2181,1,1,2181,12,31,1/1/2181,12/31/2181,365,FALSE,1,1
184,2182,1,1,2182,12,31,1/1/2182,12/31/2182,365,FALSE,1,1
185,2183,1,1,2183,12,31,1/1/2183,12/31/2183,365,FALSE,1,1
186,2184,1,1,2184,12,31,1/1/2184,12/31/2184,366,FALSE,1,1
187,2185,1,1,2185,12,31,1/1/2185,12/31/2185,365,FALSE,1,1
188,2186,1,1,2186,12,31,1/1/2186,12/31/2186,365,FALSE,1,1
189,2187,1,1,2187,12,31,1/1/2187,12/31/2187,365,FALSE,1,1
190,2188,1,1,2188,12,31,1/1/2188,12/31/2188,366,FALSE,1,1
191,2189,1,1,2189,12,31,1/1/2189,12/31/2189,365,FALSE,1,1
192,2190,1,1,2190,12,31,1/1/2190,12/31/2190,365,FALSE,1,1
193,2191,1,1,2191,12,31,1/1/2191,12/31/2191,365,FALSE,1,1
194,2192,1,1,2192,12,31,1/1/2192,12/31/2192,366,FALSE,1,1
195,2193,1,1,2193,12,31,1/1/2193,12/31/2193,365,FALSE,1,1
196,2194,1,1,2194,12,31,1/1/2194,12/31/2194,365,FALSE,1,1
197,2195,1,1,2195,12,31,1/1/2195,12/31/2195,365,FALSE,1,1
198,2196,1,1,2196,12,31,1/1/2196,12/31/2196,366,FALSE,1,1
199,2197,1,1,2197,12,31,1/1/2197,12/31/2197,365,FALSE,1,1
200,2198,1,1,2198,12,31,1/1/2198,12/31/2198,365,FALSE,1,1
201,2199,1,1,2199,12,31,1/1/2199,12/31/2199,365,FALSE,1,1
202,2200,1,1,2200,12,31,1/1/2200,12/31/2200,365,FALSE,1,1
203,2201,1,1,2201,12,31,1/1/2201,12/31/2201,365,FALSE,1,1
204,2202,1,1,2202,12,31,1/1/2202,12/31/2202,365,FALSE,1,1
205,2203,1,1,2203,12,31,1/1/2203,12/31/2203,365,FALSE,1,1
206,2204,1,1,2204,12,31,1/1/2204,12/31/2204,366,FALSE,1,1
207,2205,1,1,2205,12,31,1/1/2205,12/31/2205,365,FALSE,1,1
208,2206,1,1,2206,12,31,1/1/2206,12/31/2206,365,FALSE,1,1
209,2207,1,1,2207,12,31,1/1/2207,12/31/2207,365,FALSE,1,1
210,2208,1,1,2208,12,31,1/1/2208,12/31/2208,366,FALSE,1,1
211,2209,1,1,2209,12,31,1/1/2209,12/31/2209,365,FALSE,1,1
212,2210,1,1,2210,12,31,1/1/2210,12/31/2210,365,FALSE,1,1
213,2211,1,1,2211,12,31,1/1/2211,12/31/2211,365,FALSE,1,1
214,2212,1,1,2212,12,31,1/1/2212,12/31/2212,366,FALSE,1,1
215,2213,1,1,2213,12,31,1/1/2213,12/31/2213,365,FALSE,1,1
216,2214,1,1,2214,12,31,1/1/2214,12/31/2214,365,FALSE,1,1
217,2215,1,1,2215,12,31,1/1/2215,12/31/2215,365,FALSE,1,1
218,2216,1,1,2216,12,31,1/1/2216,12/31/2216,366,FALSE,1,1
219,2217,1,1,2217,12,31,1/1/2217,12/31/2217,365,FALSE,1,1
220,2218,1,1,2218,12,31,1/1/2218,12/31/2218,365,FALSE,1,1
221,2219,1,1,2219,12,31,1/1/2219,12/31/2219,365,FALSE,1,1
