FID,map_id,site_no,UTM_X_METE,UTM_Y_METE,2019,2020,2021,2022,2023,2024,2025,2026,2027,2028,2029,2030,2031,2032,2033,2034,2035,2036,2037,2038,2039,2040
0,1,pump1,237490,3917008,-100,-105,-110.25,-115.7625,-121.550625,-127.6281563,-134.0095641,-140.7100423,-147.7455444,-155.1328216,-162.8894627,-171.0339358,-179.5856326,-188.5649142,-197.9931599,-207.8928179,-218.2874588,-229.2018318,-240.6619234,-252.6950195,-265.3297705,-278.596259
1,2,pump2,236705,3917836,-100,-105,-110.25,-115.7625,-121.550625,-127.6281563,-134.0095641,-140.7100423,-147.7455444,-155.1328216,-162.8894627,-171.0339358,-179.5856326,-188.5649142,-197.9931599,-207.8928179,-218.2874588,-229.2018318,-240.6619234,-252.6950195,-265.3297705,-278.596259
2,3,pump3,237655.6,3915590,-100,-105,-110.25,-115.7625,-121.550625,-127.6281563,-134.0095641,-140.7100423,-147.7455444,-155.1328216,-162.8894627,-171.0339358,-179.5856326,-188.5649142,-197.9931599,-207.8928179,-218.2874588,-229.2018318,-240.6619234,-252.6950195,-265.3297705,-278.596259
3,4,pump4,237484.9,3916807,-100,-105,-110.25,-115.7625,-121.550625,-127.6281563,-134.0095641,-140.7100423,-147.7455444,-155.1328216,-162.8894627,-171.0339358,-179.5856326,-188.5649142,-197.9931599,-207.8928179,-218.2874588,-229.2018318,-240.6619234,-252.6950195,-265.3297705,-278.596259
4,5,pump5,236886,3917025,-100,-105,-110.25,-115.7625,-121.550625,-127.6281563,-134.0095641,-140.7100423,-147.7455444,-155.1328216,-162.8894627,-171.0339358,-179.5856326,-188.5649142,-197.9931599,-207.8928179,-218.2874588,-229.2018318,-240.6619234,-252.6950195,-265.3297705,-278.596259
5,6,pump6,236935.6,3918837,-100,-105,-110.25,-115.7625,-121.550625,-127.6281563,-134.0095641,-140.7100423,-147.7455444,-155.1328216,-162.8894627,-171.0339358,-179.5856326,-188.5649142,-197.9931599,-207.8928179,-218.2874588,-229.2018318,-240.6619234,-252.6950195,-265.3297705,-278.596259
6,7,pump7,235991.5,3906570,-100,-105,-110.25,-115.7625,-121.550625,-127.6281563,-134.0095641,-140.7100423,-147.7455444,-155.1328216,-162.8894627,-171.0339358,-179.5856326,-188.5649142,-197.9931599,-207.8928179,-218.2874588,-229.2018318,-240.6619234,-252.6950195,-265.3297705,-278.596259
7,8,pump8,236998.7,3906540,-100,-105,-110.25,-115.7625,-121.550625,-127.6281563,-134.0095641,-140.7100423,-147.7455444,-155.1328216,-162.8894627,-171.0339358,-179.5856326,-188.5649142,-197.9931599,-207.8928179,-218.2874588,-229.2018318,-240.6619234,-252.6950195,-265.3297705,-278.596259
8,9,pump9,235751.6,3905167,-100,-105,-110.25,-115.7625,-121.550625,-127.6281563,-134.0095641,-140.7100423,-147.7455444,-155.1328216,-162.8894627,-171.0339358,-179.5856326,-188.5649142,-197.9931599,-207.8928179,-218.2874588,-229.2018318,-240.6619234,-252.6950195,-265.3297705,-278.596259
9,10,pump10,234345.6,3904806,-100,-105,-110.25,-115.7625,-121.550625,-127.6281563,-134.0095641,-140.7100423,-147.7455444,-155.1328216,-162.8894627,-171.0339358,-179.5856326,-188.5649142,-197.9931599,-207.8928179,-218.2874588,-229.2018318,-240.6619234,-252.6950195,-265.3297705,-278.596259
10,11,pump11,235520.4,3904167,-100,-105,-110.25,-115.7625,-121.550625,-127.6281563,-134.0095641,-140.7100423,-147.7455444,-155.1328216,-162.8894627,-171.0339358,-179.5856326,-188.5649142,-197.9931599,-207.8928179,-218.2874588,-229.2018318,-240.6619234,-252.6950195,-265.3297705,-278.596259
11,12,pump12,230481,3910164,-100,-105,-110.25,-115.7625,-121.550625,-127.6281563,-134.0095641,-140.7100423,-147.7455444,-155.1328216,-162.8894627,-171.0339358,-179.5856326,-188.5649142,-197.9931599,-207.8928179,-218.2874588,-229.2018318,-240.6619234,-252.6950195,-265.3297705,-278.596259
12,13,pump13,230904,3910956,-100,-105,-110.25,-115.7625,-121.550625,-127.6281563,-134.0095641,-140.7100423,-147.7455444,-155.1328216,-162.8894627,-171.0339358,-179.5856326,-188.5649142,-197.9931599,-207.8928179,-218.2874588,-229.2018318,-240.6619234,-252.6950195,-265.3297705,-278.596259
13,14,pump14,230481,3910164,-100,-105,-110.25,-115.7625,-121.550625,-127.6281563,-134.0095641,-140.7100423,-147.7455444,-155.1328216,-162.8894627,-171.0339358,-179.5856326,-188.5649142,-197.9931599,-207.8928179,-218.2874588,-229.2018318,-240.6619234,-252.6950195,-265.3297705,-278.596259
14,15,obs1,230486.1,3910366,0,0,0,0,0,0,0,0,0,0,0,0,0,0,0,0,0,0,0,0,0,0
15,16,obs2,237200.8,3906534,0,0,0,0,0,0,0,0,0,0,0,0,0,0,0,0,0,0,0,0,0,0
16,17,obs3,237582.8,3912968,0,0,0,0,0,0,0,0,0,0,0,0,0,0,0,0,0,0,0,0,0,0
17,18,obs4,229495.5,3911001,0,0,0,0,0,0,0,0,0,0,0,0,0,0,0,0,0,0,0,0,0,0
18,19,obs5,230094,3910781,0,0,0,0,0,0,0,0,0,0,0,0,0,0,0,0,0,0,0,0,0,0
19,20,obs6,230674.5,3909956,0,0,0,0,0,0,0,0,0,0,0,0,0,0,0,0,0,0,0,0,0,0
20,21,obs7,236763.4,3919850,0,0,0,0,0,0,0,0,0,0,0,0,0,0,0,0,0,0,0,0,0,0
21,22,obs8,237564.3,3919626,0,0,0,0,0,0,0,0,0,0,0,0,0,0,0,0,0,0,0,0,0,0
22,23,obs9,237357.8,3904917,0,0,0,0,0,0,0,0,0,0,0,0,0,0,0,0,0,0,0,0,0,0
23,24,inf1,233461.4,3908861,100,105,110.25,115.7625,121.550625,127.6281563,134.0095641,140.7100423,147.7455444,155.1328216,162.8894627,171.0339358,179.5856326,188.5649142,197.9931599,207.8928179,218.2874588,229.2018318,240.6619234,252.6950195,265.3297705,278.596259
24,25,inf2,234423.2,3907423,100,105,110.25,115.7625,121.550625,127.6281563,134.0095641,140.7100423,147.7455444,155.1328216,162.8894627,171.0339358,179.5856326,188.5649142,197.9931599,207.8928179,218.2874588,229.2018318,240.6619234,252.6950195,265.3297705,278.596259
25,26,inf3,236993.3,3906339,100,105,110.25,115.7625,121.550625,127.6281563,134.0095641,140.7100423,147.7455444,155.1328216,162.8894627,171.0339358,179.5856326,188.5649142,197.9931599,207.8928179,218.2874588,229.2018318,240.6619234,252.6950195,265.3297705,278.596259
26,27,inf4,232644.6,3908485,100,105,110.25,115.7625,121.550625,127.6281563,134.0095641,140.7100423,147.7455444,155.1328216,162.8894627,171.0339358,179.5856326,188.5649142,197.9931599,207.8928179,218.2874588,229.2018318,240.6619234,252.6950195,265.3297705,278.596259
27,28,inf5,237357.8,3904917,100,105,110.25,115.7625,121.550625,127.6281563,134.0095641,140.7100423,147.7455444,155.1328216,162.8894627,171.0339358,179.5856326,188.5649142,197.9931599,207.8928179,218.2874588,229.2018318,240.6619234,252.6950195,265.3297705,278.596259
28,29,inf6,229538.6,3912408,100,105,110.25,115.7625,121.550625,127.6281563,134.0095641,140.7100423,147.7455444,155.1328216,162.8894627,171.0339358,179.5856326,188.5649142,197.9931599,207.8928179,218.2874588,229.2018318,240.6619234,252.6950195,265.3297705,278.596259
29,30,inf7,229538.6,3912408,100,105,110.25,115.7625,121.550625,127.6281563,134.0095641,140.7100423,147.7455444,155.1328216,162.8894627,171.0339358,179.5856326,188.5649142,197.9931599,207.8928179,218.2874588,229.2018318,240.6619234,252.6950195,265.3297705,278.596259
30,31,inf8,232683.5,3916544,100,105,110.25,115.7625,121.550625,127.6281563,134.0095641,140.7100423,147.7455444,155.1328216,162.8894627,171.0339358,179.5856326,188.5649142,197.9931599,207.8928179,218.2874588,229.2018318,240.6619234,252.6950195,265.3297705,278.596259
31,32,inf9,237469.1,3916202,100,105,110.25,115.7625,121.550625,127.6281563,134.0095641,140.7100423,147.7455444,155.1328216,162.8894627,171.0339358,179.5856326,188.5649142,197.9931599,207.8928179,218.2874588,229.2018318,240.6619234,252.6950195,265.3297705,278.596259
32,33,inf10,237810.7,3921029,100,105,110.25,115.7625,121.550625,127.6281563,134.0095641,140.7100423,147.7455444,155.1328216,162.8894627,171.0339358,179.5856326,188.5649142,197.9931599,207.8928179,218.2874588,229.2018318,240.6619234,252.6950195,265.3297705,278.596259
33,34,inf11,237767.9,3919620,100,105,110.25,115.7625,121.550625,127.6281563,134.0095641,140.7100423,147.7455444,155.1328216,162.8894627,171.0339358,179.5856326,188.5649142,197.9931599,207.8928179,218.2874588,229.2018318,240.6619234,252.6950195,265.3297705,278.596259
34,35,inf12,237522.2,3918216,100,105,110.25,115.7625,121.550625,127.6281563,134.0095641,140.7100423,147.7455444,155.1328216,162.8894627,171.0339358,179.5856326,188.5649142,197.9931599,207.8928179,218.2874588,229.2018318,240.6619234,252.6950195,265.3297705,278.596259
35,36,inf13,237624.4,3921639,100,105,110.25,115.7625,121.550625,127.6281563,134.0095641,140.7100423,147.7455444,155.1328216,162.8894627,171.0339358,179.5856326,188.5649142,197.9931599,207.8928179,218.2874588,229.2018318,240.6619234,252.6950195,265.3297705,278.596259
36,37,inf14,237851.6,3922638,100,105,110.25,115.7625,121.550625,127.6281563,134.0095641,140.7100423,147.7455444,155.1328216,162.8894627,171.0339358,179.5856326,188.5649142,197.9931599,207.8928179,218.2874588,229.2018318,240.6619234,252.6950195,265.3297705,278.596259
