FID,map_id,site_no,UTM_X_METER,UTM_Y_METER,2019,2020,2021,2022,2023,2024,2025,2026,2027,2028,2029,2030,2031,2032,2033,2034,2035,2036,2037,2038,2039,2040,WELL55_ID,OWNER_NAME,RGR_PUMP_D,WELLTYPE,INSTALLED,WELL_DEPTH,WATER_LEVE
0,1,208802,215320,3962436,-631.3333333,-631.3333333,-631.3333333,-631.3333333,-744.7407407,-858.1481481,-971.5555556,-1084.962963,-1198.37037,-1311.777778,-1425.185185,-1538.592593,-1652,-1652,-1652,-1652,-1652,-1652,-1652,-1652,-1652,-1652,208802,  PIERCE FERRY LLC,NO,NON-EXEMPT, ,723,606
1,2,208803,216704.7,3962399,-631.3333333,-631.3333333,-631.3333333,-631.3333333,-744.7407407,-858.1481481,-971.5555556,-1084.962963,-1198.37037,-1311.777778,-1425.185185,-1538.592593,-1652,-1652,-1652,-1652,-1652,-1652,-1652,-1652,-1652,-1652,208803,  PIERCE FERRY LLC,NO,NON-EXEMPT,2005-10-15T00:00:00.000Z,1500,551
2,3,222891,229033.8,3929556,-1483.666667,-1483.666667,-1483.666667,-1483.666667,-1523.740741,-1563.814815,-1603.888889,-1643.962963,-1684.037037,-1724.111111,-1764.185185,-1804.259259,-1844.333333,-1844.333333,-1844.333333,-1844.333333,-1844.333333,-1844.333333,-1844.333333,-1844.333333,-1844.333333,-1844.333333,222891,"  RED LAKE VENTURES, LLC",NO,NON-EXEMPT,2014-06-14T00:00:00.000Z,725,346
3,4,223099,231520,3931786,-1483.666667,-1483.666667,-1483.666667,-1483.666667,-1523.740741,-1563.814815,-1603.888889,-1643.962963,-1684.037037,-1724.111111,-1764.185185,-1804.259259,-1844.333333,-1844.333333,-1844.333333,-1844.333333,-1844.333333,-1844.333333,-1844.333333,-1844.333333,-1844.333333,-1844.333333,223099,"  RED LAKE VENTURES, LLC",NO,NON-EXEMPT,2015-01-12T00:00:00.000Z,860,402
4,5,223762,229302,3931850,-1483.666667,-1483.666667,-1483.666667,-1483.666667,-1523.740741,-1563.814815,-1603.888889,-1643.962963,-1684.037037,-1724.111111,-1764.185185,-1804.259259,-1844.333333,-1844.333333,-1844.333333,-1844.333333,-1844.333333,-1844.333333,-1844.333333,-1844.333333,-1844.333333,-1844.333333,223762,  RED LAKE VENTURES LLC,NO,NON-EXEMPT,2014-10-03T00:00:00.000Z,1140,415
5,6,223764,230608.5,3928298,-1483.666667,-1483.666667,-1483.666667,-1483.666667,-1523.740741,-1563.814815,-1603.888889,-1643.962963,-1684.037037,-1724.111111,-1764.185185,-1804.259259,-1844.333333,-1844.333333,-1844.333333,-1844.333333,-1844.333333,-1844.333333,-1844.333333,-1844.333333,-1844.333333,-1844.333333,223764,"  RED LAKE VENTURES, LLC",NO,NON-EXEMPT,2014-09-24T00:00:00.000Z,960,436
6,7,223890,235582.6,3926934,-886.25,-886.25,-886.25,-886.25,-1083.194444,-1280.138889,-1477.083333,-1674.027778,-1870.972222,-2067.916667,-2264.861111,-2461.805556,-2658.75,-2658.75,-2658.75,-2658.75,-2658.75,-2658.75,-2658.75,-2658.75,-2658.75,-2658.75,223890,"  RED LAKE VENTURES, LLC",NO,NON-EXEMPT,2014-10-28T00:00:00.000Z,1000,440
7,8,223891,224719.1,3932213,-1662,-1662,-1662,-1662,-1662,-1662,-1662,-1662,-1662,-1662,-1662,-1662,-1662,-1662,-1662,-1662,-1662,-1662,-1662,-1662,-1662,-1662,223891,  RED LAKE VENTURES LLC,NO,NON-EXEMPT,2014-10-21T00:00:00.000Z,980,465
8,9,223893,235532.2,3925325,-886.25,-886.25,-886.25,-886.25,-1083.194444,-1280.138889,-1477.083333,-1674.027778,-1870.972222,-2067.916667,-2264.861111,-2461.805556,-2658.75,-2658.75,-2658.75,-2658.75,-2658.75,-2658.75,-2658.75,-2658.75,-2658.75,-2658.75,223893,"  RED LAKE VENTURES, LLC",NO,NON-EXEMPT, ,570,0
9,10,224458,236069,3923699,-886.25,-886.25,-886.25,-886.25,-1083.194444,-1280.138889,-1477.083333,-1674.027778,-1870.972222,-2067.916667,-2264.861111,-2461.805556,-2658.75,-2658.75,-2658.75,-2658.75,-2658.75,-2658.75,-2658.75,-2658.75,-2658.75,-2658.75,224458,"  RED LAKE  VENTURES, LLC",NO,NON-EXEMPT, ,520,0
10,11,225115,230513.8,3932932,-1483.666667,-1483.666667,-1483.666667,-1483.666667,-1523.740741,-1563.814815,-1603.888889,-1643.962963,-1684.037037,-1724.111111,-1764.185185,-1804.259259,-1844.333333,-1844.333333,-1844.333333,-1844.333333,-1844.333333,-1844.333333,-1844.333333,-1844.333333,-1844.333333,-1844.333333,225115,"  RED LAKE VENTURES, LLC",NO,NON-EXEMPT, ,1023,480
11,12,225226,234017.5,3927588,-886.25,-886.25,-886.25,-886.25,-1083.194444,-1280.138889,-1477.083333,-1674.027778,-1870.972222,-2067.916667,-2264.861111,-2461.805556,-2658.75,-2658.75,-2658.75,-2658.75,-2658.75,-2658.75,-2658.75,-2658.75,-2658.75,-2658.75,225226,"  RED LAKE VENTURES, LLC",NO,NON-EXEMPT, ,1093,490
12,13,225683,223356.1,3932971,-1662,-1662,-1662,-1662,-1662,-1662,-1662,-1662,-1662,-1662,-1662,-1662,-1662,-1662,-1662,-1662,-1662,-1662,-1662,-1662,-1662,-1662,225683,"  RED LAKE VENTURES, LLC",NO,NON-EXEMPT,2016-02-14T00:00:00.000Z,684,0
13,14,525378,234871.6,3929171,-475.25,-475.25,-475.25,-475.25,-580.8611111,-686.4722222,-792.0833333,-897.6944444,-1003.305556,-1108.916667,-1214.527778,-1320.138889,-1425.75,-1425.75,-1425.75,-1425.75,-1425.75,-1425.75,-1425.75,-1425.75,-1425.75,-1425.75,525378,LEONARD HAFLEY HAFLEY FAMILY LIMITED PARTNERSHIP,NO,NON-EXEMPT,1990-10-05T00:00:00.000Z,2300,425
14,15,525381,230664.9,3930111,-1483.666667,-1483.666667,-1483.666667,-1483.666667,-1523.740741,-1563.814815,-1603.888889,-1643.962963,-1684.037037,-1724.111111,-1764.185185,-1804.259259,-1844.333333,-1844.333333,-1844.333333,-1844.333333,-1844.333333,-1844.333333,-1844.333333,-1844.333333,-1844.333333,-1844.333333,525381,  RED LAKE VENTURES LLC,NO,NON-EXEMPT,1989-11-02T00:00:00.000Z,1111,409
15,16,575396,236521.9,3932314,-475.25,-475.25,-475.25,-475.25,-580.8611111,-686.4722222,-792.0833333,-897.6944444,-1003.305556,-1108.916667,-1214.527778,-1320.138889,-1425.75,-1425.75,-1425.75,-1425.75,-1425.75,-1425.75,-1425.75,-1425.75,-1425.75,-1425.75,575396,  THE NORTHWEST TRUST,NO,EXEMPT,1999-09-20T00:00:00.000Z,806,472
16,17,593058,230094,3910781,-776.875,-776.875,-776.875,-776.875,-949.4305556,-1121.986111,-1294.541667,-1467.097222,-1639.652778,-1812.208333,-1984.763889,-2157.319444,-2329.875,-2329.875,-2329.875,-2329.875,-2329.875,-2329.875,-2329.875,-2329.875,-2329.875,-2329.875,593058,  LINGERFELTER INVESTMENTS LIMITED PARTNERSHIP,NO,NON-EXEMPT, ,1020,526
17,18,604197,238330.7,3903887,-1707,-1707,-1707,-1707,-2086.333333,-2465.666667,-2845,-3224.333333,-3603.666667,-3983,-4362.333333,-4741.666667,-5121,-5121,-5121,-5121,-5121,-5121,-5121,-5121,-5121,-5121,604197," WF CATTLE CO INC,",NO,EXEMPT, ,1235,900
18,19,612657,229424.8,3908586,-776.875,-776.875,-776.875,-776.875,-949.4305556,-1121.986111,-1294.541667,-1467.097222,-1639.652778,-1812.208333,-1984.763889,-2157.319444,-2329.875,-2329.875,-2329.875,-2329.875,-2329.875,-2329.875,-2329.875,-2329.875,-2329.875,-2329.875,612657," KINGMAN, CITY OF,",YES,NON-EXEMPT,1974-10-10T00:00:00.000Z,1000,500
19,20,624990,237903.3,3924244,-475.25,-475.25,-475.25,-475.25,-580.8611111,-686.4722222,-792.0833333,-897.6944444,-1003.305556,-1108.916667,-1214.527778,-1320.138889,-1425.75,-1425.75,-1425.75,-1425.75,-1425.75,-1425.75,-1425.75,-1425.75,-1425.75,-1425.75,624990,  RB RANCH DEVELOPMENT,NO,NON-EXEMPT,1973-02-02T00:00:00.000Z,1100,515
20,21,903521,234423.2,3907423,-1707,-1707,-1707,-1707,-2086.333333,-2465.666667,-2845,-3224.333333,-3603.666667,-3983,-4362.333333,-4741.666667,-5121,-5121,-5121,-5121,-5121,-5121,-5121,-5121,-5121,-5121,903521,  RHODES HOMES-ARIZONA LLC,NO,NON-EXEMPT, ,1490,620
21,22,916700,236182.6,3927521,-475.25,-475.25,-475.25,-475.25,-580.8611111,-686.4722222,-792.0833333,-897.6944444,-1003.305556,-1108.916667,-1214.527778,-1320.138889,-1425.75,-1425.75,-1425.75,-1425.75,-1425.75,-1425.75,-1425.75,-1425.75,-1425.75,-1425.75,916700,"  RED LAKE VENTURES, LLC",NO,EXEMPT,2014-11-02T00:00:00.000Z,980,483
22,23,918064,237903.2,3917399,-555,-555,-555,-555,-652.3333333,-749.6666667,-847,-944.3333333,-1041.666667,-1139,-1236.333333,-1333.666667,-1431,-1431,-1431,-1431,-1431,-1431,-1431,-1431,-1431,-1431,918064,CLAUDE NEAL,NO,EXEMPT, ,800,600
23,24,920192,216958.8,3964000,-631.3333333,-631.3333333,-631.3333333,-631.3333333,-744.7407407,-858.1481481,-971.5555556,-1084.962963,-1198.37037,-1311.777778,-1425.185185,-1538.592593,-1652,-1652,-1652,-1652,-1652,-1652,-1652,-1652,-1652,-1652,920192,"  ARIZONA SERIES 2, A SERIES OF AILERON INVESTMENTS LLC",NO,NON-EXEMPT,2017-02-01T00:00:00.000Z,1000,475
24,25,999999,232350,3910109,0,0,0,0,0,0,0,0,0,0,0,0,0,0,0,0,0,0,0,0,0,0,,Wastewater Treatment Plant,,,,,
25,26,999998,771988,3898931,0,0,0,0,0,0,0,0,0,0,0,0,0,0,0,0,0,0,0,0,0,0,,Kingman Park,,,,,
